<svg id="noun_Download_3670040" xmlns="http://www.w3.org/2000/svg" width="20.177" height="20.189" viewBox="0 0 20.177 20.189">
  <g id="Group_5372" data-name="Group 5372" transform="translate(0 0)">
    <path id="Path_13012" data-name="Path 13012" d="M10.342.26a.919.919,0,0,0-.908.933V13.645L5.5,9.717A.917.917,0,1,0,4.2,11.01l5.5,5.5a.917.917,0,0,0,1.293,0l5.5-5.5a.917.917,0,1,0-1.293-1.29l-3.938,3.939V1.193A.918.918,0,0,0,10.342.26ZM1.172,14.932a.917.917,0,0,0-.908.927v3.667a.917.917,0,0,0,.92.922H19.518a.917.917,0,0,0,.922-.922V15.86a.917.917,0,0,0-1.833,0v2.756H2.1V15.86a.917.917,0,0,0-.926-.927Z" transform="translate(-0.264 -0.26)" fill="#707882" fill-rule="evenodd"/>
  </g>
</svg>
