<svg xmlns="http://www.w3.org/2000/svg" width="34" height="34" viewBox="0 0 34 34">
  <g id="Group_19" data-name="Group 19" transform="translate(34) rotate(90)">
    <g id="Rectangle_4" data-name="Rectangle 4" transform="translate(0 0)" fill="none" stroke="#707070" stroke-width="2">
      <rect width="34" height="34" stroke="none"/>
      <rect x="1" y="1" width="32" height="32" fill="none"/>
    </g>
    <g id="Group_16" data-name="Group 16" transform="translate(8.719 11.46)">
      <path id="Path_14" data-name="Path 14" d="M1.728,9.261,8.206,2.64l6.514,6.622c.859.895,2.326-.573,1.432-1.467L8.815.242a.8.8,0,0,0-1.145,0L.261,7.794C-.6,8.689.869,10.156,1.728,9.261Z" fill="#707070" fill-rule="evenodd"/>
    </g>
  </g>
</svg>
