<svg xmlns="http://www.w3.org/2000/svg" width="34" height="34" viewBox="0 0 34 34">
  <g id="Group_18" data-name="Group 18" transform="translate(-2800 6852) rotate(90)">
    <g id="Rectangle_4" data-name="Rectangle 4" transform="translate(-6852 -2834)" fill="none" stroke="#707070" stroke-width="2">
      <rect width="34" height="34" stroke="none"/>
      <rect x="1" y="1" width="32" height="32" fill="none"/>
    </g>
    <g id="Group_16" data-name="Group 16" transform="translate(-7037 -3111.21)">
      <path id="Path_14" data-name="Path 14" d="M195.447,290.489l6.478,6.622,6.514-6.622c.859-.895,2.326.573,1.432,1.467l-7.337,7.552a.8.8,0,0,1-1.145,0l-7.409-7.552C193.12,291.061,194.588,289.594,195.447,290.489Z" transform="translate(0)" fill="#707070" fill-rule="evenodd"/>
    </g>
  </g>
</svg>
