<svg xmlns="http://www.w3.org/2000/svg" width="10.803" height="10.803" viewBox="0 0 10.803 10.803">
  <g id="Group_30" data-name="Group 30" transform="translate(-8.393 -8.393)">
    <g id="Group_31" data-name="Group 31" transform="translate(8.393 8.393)">
      <g id="Group_30-2" data-name="Group 30" transform="translate(0 0)">
        <path id="Path_21" data-name="Path 21" d="M464.453,13.8l4.607-4.607a.465.465,0,0,0-.658-.658L463.8,13.137,459.188,8.53a.465.465,0,0,0-.658.658l4.607,4.607L458.53,18.4a.465.465,0,0,0,.658.658l4.607-4.607L468.4,19.06a.465.465,0,0,0,.658-.658Z" transform="translate(-458.393 -8.393)" fill="#5d5f65" fill-rule="evenodd"/>
      </g>
    </g>
  </g>
</svg>
