<svg xmlns="http://www.w3.org/2000/svg" width="122" height="71.117" viewBox="0 0 122 71.117">
  <g id="Group_1" data-name="Group 1" transform="translate(-181.223 -457.63)">
    <g id="Group_51" data-name="Group 51" transform="translate(181 458)">
      <text id="esp" transform="translate(0.223 49.63)" fill="#f89b3e" font-size="63" font-family="aBlackLives, a Black Lives"><tspan x="0" y="0">e</tspan><tspan y="0" fill="#19a4e8">s</tspan><tspan y="0" fill="#15ba08">p</tspan></text>
    </g>
    <g id="Group_52" data-name="Group 52" transform="translate(226.836 458.474)">
      <path id="Path_6" data-name="Path 6" d="M1859.379,1340.03s-2.075-9.009.354-15.107,2.751-7.05,6.269-11.236,11.118-9.061,11.118-9.061l8.373-5.295s5.256-3.253,7.075-6.211a19.572,19.572,0,0,0,2.378-5.776l.929-5.832a31.907,31.907,0,0,1,4.285,7.528,23.053,23.053,0,0,1,.88,7.61,25.734,25.734,0,0,1-1.173,4.67c-.6,1.227-2.4,4.154-2.4,4.154a44.077,44.077,0,0,1-5.963,5.128,54.962,54.962,0,0,0-5.034,3.778l-4.886,4.071-3.754,3.7a51.135,51.135,0,0,0-4.14,5.732,24.56,24.56,0,0,0-1.95,3.773s-.87,2.222-1.474,4.411a15.4,15.4,0,0,0-.628,3.39,26.817,26.817,0,0,0-.108,4.179c.143,1.906.735,6.036.735,6.036l.64,2.116-1.729-2.116s-3.412-6.183-3.456-10.626-.166-5.443.309-7.39a36.282,36.282,0,0,1,2.34-7.034c.944-1.757,3.983-5.792,3.983-5.792a53.946,53.946,0,0,1,5.131-5.139c2.14-1.719,10.849-8.7,10.849-8.7s-8.876,4.412-12.817,7.755-3.463,3.023-3.463,3.023-4.821,4.193-6.332,6.744-2.2,3.674-2.2,3.674a49.782,49.782,0,0,0-2.647,6.227c-.542,2.018-1.14,5.107-1.14,5.107Z" transform="translate(-1858.553 -1281.512)" fill="#191c24"/>
    </g>
  </g>
</svg>
