<svg xmlns="http://www.w3.org/2000/svg" width="140.602" height="77.608" viewBox="0 0 140.602 77.608">
  <g id="Group_1136" data-name="Group 1136" transform="translate(-233 -1246)">
    <path id="Path_680" data-name="Path 680" d="M118.262-51.475a15.169,15.169,0,0,1,13.33,6.973,19.517,19.517,0,0,1,3.281,11.074q0,7.861-5.2,12.578a16.332,16.332,0,0,1-11.416,4.033H107.393V0H93.105V-39.99H89.619l3.486-11.484ZM107.393-39.99V-28.3h6.631a5.025,5.025,0,0,0,5.059-3.418,7.138,7.138,0,0,0,.41-2.393,5.491,5.491,0,0,0-2.666-5.127,5.5,5.5,0,0,0-2.8-.752Z" transform="translate(238.727 1299.367)" fill="#11a306"/>
    <g id="Group_1117" data-name="Group 1117" transform="translate(37.727 26.367)">
      <path id="Path_678" data-name="Path 678" d="M39.238-31.035v11.484H18.047v8.066H44.16V0H3.76V-39.99H.273L3.76-51.475H43.477L39.99-39.99H18.047v8.955Z" transform="translate(195 1273)" fill="#ef8d2b"/>
      <path id="Path_679" data-name="Path 679" d="M67.334-52.363q9.092,0,14.971,5.264a16.545,16.545,0,0,1,5.059,8.887L73.555-34.18q0-4.375-3.623-5.947a6.325,6.325,0,0,0-2.6-.547q-3.76,0-5.537,2.324a2.837,2.837,0,0,0-.684,1.709q0,2.734,4.375,4.17a41.809,41.809,0,0,0,5.127,1.3q8.271,1.914,11.758,4.1,6.357,4.1,6.426,12.441,0,6.836-7.109,11.416a27.311,27.311,0,0,1-14.9,4.1q-9.775,0-16.064-5.264a16.829,16.829,0,0,1-5.4-8.887L59.2-17.3a5.858,5.858,0,0,0,4.1,5.811,8.973,8.973,0,0,0,3.486.684q4.99,0,6.9-2.393a2.378,2.378,0,0,0,.615-1.5q0-2.939-4.375-4.443-.684-.205-7.793-1.914-8.75-2.051-12.168-6.016a14.418,14.418,0,0,1-3.213-9.707q0-6.9,6.768-11.553a24.216,24.216,0,0,1,13.814-4.037Z" transform="translate(195 1272)" fill="#0996db"/>
      <path id="Path_6" data-name="Path 6" d="M1859.455,1345.4s-2.266-9.836.386-16.494,3-7.7,6.845-12.268,12.139-9.893,12.139-9.893l9.141-5.781s5.738-3.552,7.724-6.781a21.368,21.368,0,0,0,2.6-6.306l1.014-6.368a34.828,34.828,0,0,1,4.679,8.219,25.156,25.156,0,0,1,.961,8.309,28.118,28.118,0,0,1-1.28,5.1c-.661,1.339-2.621,4.535-2.621,4.535a48.128,48.128,0,0,1-6.511,5.6,60,60,0,0,0-5.5,4.125l-5.335,4.444-4.1,4.035a55.764,55.764,0,0,0-4.52,6.259,26.794,26.794,0,0,0-2.129,4.119s-.95,2.426-1.609,4.816a16.821,16.821,0,0,0-.685,3.7,29.242,29.242,0,0,0-.117,4.563c.156,2.081.8,6.591.8,6.591l.7,2.311-1.888-2.311s-3.725-6.751-3.773-11.6-.181-5.943.337-8.069a39.613,39.613,0,0,1,2.554-7.679c1.031-1.919,4.349-6.324,4.349-6.324a58.885,58.885,0,0,1,5.6-5.611c2.336-1.876,11.845-9.5,11.845-9.5s-9.691,4.817-13.994,8.467-3.781,3.3-3.781,3.3-5.264,4.578-6.913,7.363-2.4,4.011-2.4,4.011a54.269,54.269,0,0,0-2.89,6.8c-.592,2.2-1.245,5.576-1.245,5.576Z" transform="translate(-1606.339 -60.994)" fill="#fff"/>
    </g>
  </g>
</svg>
