<svg xmlns="http://www.w3.org/2000/svg" width="31.305" height="26" viewBox="0 0 31.305 26">
  <g id="Group_153" data-name="Group 153" transform="translate(-2.5 -10.5)">
    <path id="Path_121" data-name="Path 121" d="M33.016,39.668l-2.439-3.427a.517.517,0,0,0-.791-.066L28.4,37.526a.517.517,0,0,1-.791-.066l-3.427-4.58a.524.524,0,0,0-.857.033l-5.6,8.864a.518.518,0,0,0,.461.791H30.94A7.95,7.95,0,0,1,33.016,39.668Z" transform="translate(-10.151 -14.866)" fill="#fff"/>
    <circle id="Ellipse_25" data-name="Ellipse 25" cx="1.944" cy="1.944" r="1.944" transform="translate(19.273 15.146)" fill="#fff"/>
    <path id="Path_122" data-name="Path 122" d="M29.554,24.835V11.357A.851.851,0,0,0,28.7,10.5H3.357a.851.851,0,0,0-.857.857v20a.872.872,0,0,0,.857.857H22.14a5.953,5.953,0,1,0,7.414-7.381ZM4.181,12.214h23.66V24.6h0a5.963,5.963,0,0,0-5.965,5.965H4.181Zm23.66,22.606a4.284,4.284,0,1,1,4.284-4.284A4.3,4.3,0,0,1,27.841,34.819Z" fill="#fff"/>
    <path id="Path_123" data-name="Path 123" d="M77.253,64.777l-1.285-1.714a.688.688,0,0,0-.527-.264h0a.688.688,0,0,0-.527.264l-1.285,1.714a.656.656,0,0,0-.066.692.622.622,0,0,0,.593.362h.527v1.944a.758.758,0,0,0,1.516,0V65.832h.527a.656.656,0,0,0,.593-.362.6.6,0,0,0-.066-.692Z" transform="translate(-47.6 -35.066)" fill="#fff"/>
  </g>
</svg>
