<svg xmlns="http://www.w3.org/2000/svg" width="52.536" height="52.536" viewBox="0 0 52.536 52.536">
  <g id="Group_8" data-name="Group 8" transform="translate(-733 -93)">
    <path id="Path_3" data-name="Path 3" d="M133.228,36.961A26.268,26.268,0,1,0,159.5,63.229a26.244,26.244,0,0,0-26.268-26.268Zm12.71,20.821L130.383,73.276a2.389,2.389,0,0,1-1.695.726,2.289,2.289,0,0,1-1.695-.726l-7.687-7.626a2.44,2.44,0,1,1,3.45-3.45l5.931,5.931,13.8-13.8a2.412,2.412,0,0,1,3.45,0,2.526,2.526,0,0,1,0,3.451Z" transform="translate(626.04 56.039)" fill="#41b217"/>
  </g>
</svg>
